{
  "configs": [
    "common-flows.xml"
  ],
  "secureProperties": [],
  "redeploymentEnabled": true,
  "name": "7bc86918-a20b-45d5-af8f-125baad945f9:common-flows:1.0.0-SNAPSHOT",
  "minMuleVersion": "4.3.0",
  "requiredProduct": "MULE",
  "classLoaderModelLoaderDescriptor": {
    "id": "mule",
    "attributes": {
      "exportedPackages": [],
      "exportedResources": [
        "log4j2.xml",
        "common-flows.xml"
      ]
    }
  },
  "bundleDescriptorLoader": {
    "id": "mule",
    "attributes": {}
  }
}